<svg xmlns="http://www.w3.org/2000/svg"
     width="24"
     height="24"
     viewBox="0 0 24 24">
  <style type="text/css">
    .st0{fill: #3c3d3d;}
  </style>
  <path class="st0" d="M3 3v18h18V3H3zm8 16H5v-6h6v6zm0-8H5V5h6v6zm8 8h-6v-6h6v6zm0-8h-6V5h6v6z"/>
  <path d="M0 0h24v24H0z" fill="none"/>
</svg>
